\relax 
\providecommand\hyper@newdestlabel[2]{}
\providecommand\HyperFirstAtBeginDocument{\AtBeginDocument}
\HyperFirstAtBeginDocument{\ifx\hyper@anchor\@undefined
\global\let\oldcontentsline\contentsline
\gdef\contentsline#1#2#3#4{\oldcontentsline{#1}{#2}{#3}}
\global\let\oldnewlabel\newlabel
\gdef\newlabel#1#2{\newlabelxx{#1}#2}
\gdef\newlabelxx#1#2#3#4#5#6{\oldnewlabel{#1}{{#2}{#3}}}
\AtEndDocument{\ifx\hyper@anchor\@undefined
\let\contentsline\oldcontentsline
\let\newlabel\oldnewlabel
\fi}
\fi}
\global\let\hyper@last\relax 
\gdef\HyperFirstAtBeginDocument#1{#1}
\providecommand*\HyPL@Entry[1]{}
\citation{ghasemlou16wafr}
\citation{saberifar16rss}
\citation{ghasemlou16wafr}
\citation{sabgha2018ijrr}
\citation{ghas2018iros}
\citation{ghas2018iros}
\citation{ghas2019iros}
\HyPL@Entry{0<</P()>>}
\bibstyle{IEEEtranS}
\bibdata{refs}
\bibcite{ghas2019iros}{1}
\bibcite{ghas2018iros}{2}
\bibcite{ghasemlou16wafr}{3}
\bibcite{saberifar16rss}{4}
\bibcite{sabgha2018ijrr}{5}
