This is BibTeX, Version 0.99d (TeX Live 2013/Debian)
Capacity: max_strings=35307, hash_size=35307, hash_prime=30011
The top-level auxiliary file: rs.aux
The style file: IEEEtranS.bst
Reallocated singl_function (elt_size=4) to 100 items from 50.
Reallocated singl_function (elt_size=4) to 100 items from 50.
Reallocated singl_function (elt_size=4) to 100 items from 50.
Reallocated wiz_functions (elt_size=4) to 6000 items from 3000.
Reallocated singl_function (elt_size=4) to 100 items from 50.
Database file #1: refs.bib
-- IEEEtranS.bst version 1.13 (2008/09/30) by Michael Shell.
-- http://www.michaelshell.org/tex/ieeetran/bibtex/
-- See the "IEEEtran_bst_HOWTO.pdf" manual for usage information.
** Sorting version - not for normal IEEE work.

Done.
You've used 5 entries,
            4498 wiz_defined-function locations,
            915 strings with 9073 characters,
and the built_in function-call counts, 3283 in all, are:
= -- 265
> -- 112
< -- 0
+ -- 51
- -- 34
* -- 183
:= -- 528
add.period$ -- 12
call.type$ -- 5
change.case$ -- 32
chr.to.int$ -- 0
cite$ -- 5
duplicate$ -- 225
empty$ -- 297
format.name$ -- 39
if$ -- 705
int.to.chr$ -- 0
int.to.str$ -- 5
missing$ -- 46
newline$ -- 38
num.names$ -- 10
pop$ -- 150
preamble$ -- 1
purify$ -- 27
quote$ -- 2
skip$ -- 224
stack$ -- 0
substring$ -- 30
swap$ -- 118
text.length$ -- 0
text.prefix$ -- 0
top$ -- 6
type$ -- 55
warning$ -- 0
while$ -- 10
width$ -- 6
write$ -- 62
